<?xml version="1.0" encoding="utf-8"?>
<!-- Generator: Adobe Illustrator 17.0.2, SVG Export Plug-In . SVG Version: 6.00 Build 0)  -->
<!DOCTYPE svg PUBLIC "-//W3C//DTD SVG 1.1//EN" "http://www.w3.org/Graphics/SVG/1.1/DTD/svg11.dtd">
<svg version="1.1" id="Layer_1" xmlns="http://www.w3.org/2000/svg" xmlns:xlink="http://www.w3.org/1999/xlink" x="0px" y="0px"
	 width="378.1px" height="56.6px" viewBox="0 0 378.1 56.6" style="enable-background:new 0 0 378.1 56.6;" xml:space="preserve">
<style type="text/css">
	.st0{fill:#FFFFFF;}
</style>
<g>
	<g>
		<path class="st0" d="M378.1,4c-0.2-0.4-0.8,0-1.1,0c-3.8-0.1-7.6-0.1-11.4-0.1c-10.1-0.1-20.1,0-30.2-0.1c-0.5,0-0.7,0.1-0.9,0.6
			c-0.9,3.1-1.8,6.2-2.7,9.2c-0.2,0.5,0.1,0.5,0.5,0.5c2.8-0.1,5.5,0.1,8.3-0.1c2.1-0.1,4.1,0,6.2,0c0.4,0,0.5,0,0.4,0.5
			c-0.7,3.2-1.4,6.3-2.2,9.5c-0.8,3.4-1.6,6.7-2.3,10.1c-0.7,3-1.3,6.1-2,9.1c-0.7,3-1.6,5.9-1.1,9.1c0.3,1.9,1.4,3.8,3.5,3.9
			c2.4,0.1,4.9,0.5,7.3,0.2c0.5-0.1,0.6-0.2,0.7-0.7c0.8-4,1.6-7.9,2.4-11.9c0.6-3,1.2-6,1.9-8.9c0.9-4.3,1.8-8.7,2.7-13
			c0.1-0.4,0-0.7-0.2-1.1c-1-1.3-1.9-2.6-2.9-3.9c-0.8-1-1.5-2.1-2.4-3.3c4.1,0.2,8.1,0,12,0.1c3.6,0.2,7.1,0,10.7,0
			c0.5,0,0.5-0.2,0.6-0.6c0.6-2.7,1.2-5.3,1.8-8C377.9,4.8,378.2,4.3,378.1,4z"/>
		<path class="st0" d="M327.5,4c-1.9,0-3.9,0-5.8,0.1c-1.8,0.1-3.5,0.1-5.3,0c-0.7,0-1,0.2-1.2,0.9c-1,4.4-2,8.8-3,13.1
			c-0.7,3.2-1.5,6.4-2.2,9.6c-1,4.5-2.1,9-3,13.5c-0.7,3.2-1.8,6.3-1.7,9.6c0,1.1,0.1,2.1,0.5,3c0.5,1.1,1.3,2,2.5,2.2
			c2.6,0.5,5.3,0.8,8,0.3c0.4-0.1,0.6-0.2,0.7-0.6c0.1-0.6,0.3-1.3,0.4-1.9c0.6-3,1.3-6,1.9-8.9c0.6-2.8,1.1-5.7,1.7-8.6
			c0.4-1.7,0.8-3.4,1.1-5.2c0.6-2.9,1.2-5.8,1.8-8.7c0.1-0.5,0.4-1,0-1.5c-1-1.4-2.1-2.8-3.1-4.2c-0.7-1-1.5-2-2.2-3.1
			c2.3-0.2,4.4,0.2,6.5,0.1c0.4,0,0.6-0.1,0.7-0.6c0.7-2.9,1.4-5.8,2.1-8.7C328.1,4,328,4,327.5,4z"/>
	</g>
	<g>
		<path class="st0" d="M72.2,0.1c-1.9,0.5-3.9,1-5.9,1.3C66,1.5,66,1.6,66,1.8c-0.4,2.4-0.7,4.7-1.1,7c-0.3,1.8-0.6,3.6-0.9,5.5
			c-0.1,0.5-0.2,0.7-0.8,0.7c-2.2,0-4.5,0.1-6.7,0.4c-2.6,0.4-5,1.1-7.3,2.4c-2.9,1.6-5.2,3.7-7,6.4c-2.8,4.1-3.9,8.8-4,13.7
			c-0.1,1.3,0.1,2.6,0.4,3.9c0.5,2,1.4,3.9,2.9,5.3c2.4,2.3,5.4,2.9,8.6,2.5c2.6-0.3,4.9-1.3,7.1-2.7c0.3-0.2,0.6-0.3,0.9-0.1
			c0.8,0.4,1.6,0.8,2.4,1.1c1,0.4,1.9,0.8,3,0.8c0.6,0,0.8-0.3,0.8-0.8c0.1-2.2,0.4-4.3,0.7-6.5c0.5-3.4,1.1-6.8,1.8-10.3
			c0.5-3.1,1.2-6.1,1.7-9.2c0.7-3.9,1.5-7.8,2.3-11.6c0.7-3.2,1.5-6.4,2-9.6C73-0.1,73-0.1,72.2,0.1z M62.8,20
			c-0.7,4-1.5,8.1-2.3,12.1c-0.6,2.9-1.1,5.8-1.6,8.8c-0.1,0.7-0.7,0.9-1.1,1.3c-1.5,1.1-3.2,2-5,2.4c-1.8,0.3-3.6,0.4-5.2-0.8
			c-1.3-1-2-2.4-2.5-3.9c-0.3-1-0.5-2.1-0.4-3.2c0.1-2.9,0.8-5.6,2-8.3c1.1-2.6,2.7-4.9,5.1-6.6c1.8-1.3,3.9-2,6.1-2.2
			c1.5-0.2,3.1,0,4.6-0.1C62.9,19.4,62.9,19.6,62.8,20z"/>
		<path class="st0" d="M164.2,48.8c0.4-2.1,0.7-4.2,1.1-6.3c0.4-2.3,0.9-4.6,1.3-6.9c0.7-3.6,1.4-7.1,2-10.7
			c0.3-1.9,0.9-3.7,0.7-5.7c-0.1-1.2-0.6-2.3-1.6-3c-1.1-0.8-2.4-1-3.7-1.1c-2.2-0.1-4.5-0.1-6.7,0.2c-3.1,0.4-5.9,1.5-8.4,3.3
			c-2.8,2-4.9,4.6-6.5,7.6c-1.9,3.7-2.8,7.6-2.8,11.7c0,0.9,0,1.8,0.2,2.7c0.5,2.7,1.4,5.1,3.6,6.9c2.5,2.1,5.4,2.6,8.6,2
			c2.2-0.4,4.1-1.3,6-2.5c0.5-0.3,0.9-0.4,1.4,0c1.2,0.9,2.4,1.6,3.8,2.2C163.8,49.6,164.1,49.5,164.2,48.8z M162.9,22
			c-0.3,2-0.7,4-1.1,6c-0.7,3.9-1.5,7.7-2.2,11.6c-0.1,0.5-0.2,1-0.3,1.6c-0.1,0.3-0.2,0.6-0.5,0.8c-1.6,1.3-3.4,2.4-5.5,2.7
			c-1.3,0.2-2.7,0.3-4-0.4c-1.4-0.8-2.3-2.1-2.8-3.7c-0.4-1.2-0.5-2.4-0.4-3.2c0-3.7,0.8-6.8,2.1-9.7c1.3-2.8,3.1-5.2,5.9-6.7
			c1.5-0.8,3.2-1.2,4.9-1.3c0.8,0,1.6-0.1,2.4,0.1C162.2,20.1,163,21.1,162.9,22z"/>
		<path class="st0" d="M30.9,16.1c-1.6-1.1-3.4-1.5-5.3-1.5c-1.4,0-2.9,0-4.3,0.1c-2.7,0.2-5.2,0.9-7.6,2.1
			c-3.2,1.5-5.9,3.7-8.3,6.3c-2.1,2.4-3.7,5-4.6,8.1c-0.8,2.7-1,5.3-0.6,8.1c0.5,2.9,1.8,5.3,4.2,7.3c2.5,2.1,5.4,3.1,8.6,3.3
			c3.2,0.2,6.3-0.2,9.2-1.6c2.1-1,4-2.2,5.7-3.8c0.3-0.3,0.3-0.6,0.1-0.9c-0.4-0.4-0.7-0.9-1-1.4c-0.2-0.3-0.3-0.3-0.6-0.1
			c-2.6,1.8-5.4,3.3-8.6,3.8c-2.6,0.3-5-0.1-7.1-1.8c-2.1-1.7-2.8-4-2.9-6.5c0-1,0.2-2,0.4-3c0-0.4,0.2-0.4,0.5-0.4
			c0.6,0,1.2,0,1.9,0c1.5,0,3.2-0.1,4.8-0.3c1.8-0.1,3.5-0.4,5.3-0.8c2.1-0.4,4.1-1.1,6-2c3.5-1.6,6.1-4,6.9-8
			C34.1,19.7,33.3,17.8,30.9,16.1z M24.9,25.8c-2.5,2.6-5.6,3.9-9,4.6c-1.5,0.3-3,0.5-4.3,0.4c-0.9,0-1.5,0-2.1,0
			c-0.4,0-0.5-0.1-0.3-0.5c1.2-3.1,2.7-5.9,4.9-8.4c1.5-1.7,3.2-3.1,5.4-4c1.8-0.7,3.7-0.9,5.6-0.3c1.2,0.4,1.8,1.4,1.9,2.6
			C27.1,22.5,26.3,24.3,24.9,25.8z"/>
		<path class="st0" d="M104.9,14.8c-1.8,0.1-3.7,0.4-5.5,0.5c-0.4,0-0.6,0.2-0.7,0.6c-0.3,1.7-0.6,3.4-0.8,5.1
			c-0.3,2.7-0.8,5.4-1.3,8c-0.7,3.7-1.5,7.3-2.3,10.9c-0.1,0.7-0.5,1.2-1.1,1.7c-2.2,1.7-4.5,3.1-7.4,3.5c-1.9,0.2-3.5-0.6-4.2-2.4
			c-0.6-1.6-0.6-3.3-0.4-5c0.5-3.1,1-6.2,1.7-9.2c0.9-4.1,2.1-8.1,2.9-12.3c0.3-1.4,0.3-1.4-1.2-1.3c-1.8,0.2-3.5,0.4-5.3,0.5
			c-0.3,0-0.4,0.2-0.4,0.5c-0.5,2.8-1,5.6-1.5,8.4c-0.7,3.8-1.4,7.6-2.1,11.4c-0.4,2.4-1,4.7-1,7.1c0,0.6,0,1.2,0.1,1.9
			c0.4,2.3,1.6,4,3.8,4.8c1.8,0.7,3.8,0.7,5.7,0.4c3.2-0.4,6.1-1.6,8.8-3.3c0.4-0.3,0.8-0.3,1.2,0.1c0.9,0.7,1.8,1.4,2.7,2.1
			c0.7,0.4,1.3,0.7,2.1,0.7c0.3,0,0.4-0.1,0.5-0.5c0.3-1.9,0.5-3.9,0.8-5.8c0.4-2.7,1-5.3,1.4-8c0.7-4.1,1.5-8.1,2.2-12.2
			c0.5-2.5,0.9-5,1.4-7.5C105.5,14.8,105.3,14.8,104.9,14.8z"/>
		<path class="st0" d="M228.6,45.1c1,1.7,2.5,3.1,4.4,3.9c3.1,1.3,6.3,1.3,9.4,0.8c3.3-0.5,6.1-2.2,8.5-4.6c1.4-1.4,2.5-3,3.3-4.7
			c2.1-4.2,3.1-8.7,3.2-13.4c0.1-1.4-0.1-2.8-0.4-4.2c-0.8-3.7-2.8-6.4-6.6-7.5c-2.3-0.7-4.5-0.6-6.9-0.4c-2,0.2-3.8,0.7-5.6,1.5
			c-3.6,1.7-6.1,4.5-8,8c-1.4,2.7-2.3,5.5-2.7,8.5c-0.3,2.2-0.6,4.4-0.4,6.7C227.2,41.6,227.6,43.4,228.6,45.1z M233.4,35.1
			c0.3-2.4,0.8-4.7,1.5-7c0.8-2.4,1.9-4.8,3.8-6.6c1.5-1.4,3.3-2.3,5.4-2.4c0.8,0,1.6,0,2.4,0.1c2,0.3,3.1,1.6,3.8,3.4
			c0.5,1.6,0.8,3.2,0.7,4c-0.1,5.4-0.9,9.9-3,14c-1.1,2.1-2.7,3.8-5,4.7c-2.2,0.8-4.4,1-6.6-0.1c-1.1-0.5-1.7-1.6-2.2-2.6
			C233.1,40.2,233,37.7,233.4,35.1z"/>
		<path class="st0" d="M264.8,49c1-0.1,2-0.1,3-0.2c0.9-0.1,1.8,0,2.7-0.2c0.5-0.1,0.6-0.3,0.7-0.8c0.2-1.7,0.4-3.3,0.7-4.9
			c0.5-2.9,1-5.8,1.5-8.7c0.7-3.6,1.3-7.2,1.9-10.8c0-0.2,0.1-0.5,0.4-0.7c1.3-0.8,2.6-1.7,4.1-2.2c2-0.8,4-1.2,6.2-0.7
			c0.8,0.2,1.3,0.7,1.8,1.3c0.6,1,0.8,2.2,0.9,3.4c0.1,1.3-0.2,2.6-0.5,3.9c-0.4,2.6-0.9,5.1-1.4,7.7c-0.8,4.1-1.6,8.2-2.5,12.2
			c-0.1,0.5,0,0.6,0.5,0.6c1.8,0,3.7-0.2,5.5-0.1c0.4,0,0.5-0.2,0.5-0.5c0.2-1.5,0.5-3,0.7-4.5c0.4-2.1,0.8-4.2,1.1-6.2
			c0.6-3.1,1.1-6.2,1.7-9.3c0.4-2,0.8-3.9,0.8-5.9c0-0.8,0-1.6-0.1-2.3c-0.6-3.2-2.1-4.8-5.2-5.2c-2-0.3-4.1-0.2-6.1,0.1
			c-2.6,0.4-5.2,1.2-7.5,2.5c-0.3,0.2-0.5,0.1-0.8,0c-1.3-0.7-2.6-1.5-4.2-1.5c-0.9,0-1,0.1-1.1,1c-0.4,2.7-0.8,5.5-1.2,8.2
			c-0.5,3.2-1.1,6.4-1.7,9.6c-0.8,3.9-1.6,7.8-2.4,11.8c-0.1,0.6-0.2,1.1-0.3,1.7C264.2,48.8,264.3,49,264.8,49z"/>
		<path class="st0" d="M178.4,43.3c0.7,1.9,1.9,3.5,3.6,4.6c1.8,1.3,3.8,1.9,6,2c3,0.1,5.8-0.2,8.6-1.5c1.3-0.6,2.4-1.3,2.5-3
			c0,0,0-0.1,0-0.1c0.2-1,0.5-1.9,0.7-2.9c0-0.2,0.1-0.5-0.1-0.6c-0.2-0.1-0.4,0.1-0.5,0.2c-0.5,0.3-1,0.6-1.5,0.9
			c-2.2,1.4-4.6,2.3-7.3,2.1c-2.3-0.1-4-1.1-5.2-3.1c-1.5-2.4-1.7-5.2-1.3-7.8c0.6-4.7,2.6-8.8,6.1-12c1.8-1.6,3.9-2.5,6.3-2.7
			c2.3-0.2,4.5,0.2,6.4,1.5c0.3,0.2,0.4,0.1,0.6-0.2c0.4-0.9,0.6-1.8,0.8-2.7c0.5-2.1,0.5-2.2-1.6-2.7c-2.1-0.5-4.3-0.6-6.4-0.4
			c-1.9,0.2-3.8,0.5-5.6,1.3c-4.9,2.2-8.4,6-10.8,10.7c-1.6,3.2-2.4,6.6-2.3,10.3C177.3,39.2,177.6,41.3,178.4,43.3z"/>
		<path class="st0" d="M137.2,15.9c-0.5-0.1-0.9-0.4-1.4-0.5c-1.7-0.5-3.4-0.6-5.6-0.5c-0.6,0-1.7,0-2.7,0.1c-2.1,0.3-4.1,1-5.9,2
			c-2.1,1.2-3.9,2.8-5.4,4.6c-2,2.3-3.6,4.9-4.6,7.8c-1.2,3.3-1.5,6.8-1.2,10.3c0.3,2.8,1.3,5.2,3.3,7.2c2.1,2.2,4.8,3,7.8,3
			c1.1,0,2.1,0,3.2-0.1c2.1-0.2,4-0.8,5.8-1.9c0.5-0.3,1.2-0.5,1.3-1.3c0.2-1.4,0.6-2.7,0.9-4c0.1-0.3,0.3-0.6,0-0.7
			c-0.2-0.1-0.5,0.1-0.7,0.3c-1.3,0.8-2.6,1.7-4.1,2.3c-1.9,0.8-4,0.9-6,0.5c-2.3-0.5-3.7-2.2-4.4-4.4c-1.3-3.5-0.8-7,0.4-10.5
			c0.8-2.3,2-4.4,3.5-6.3c1.3-1.5,2.8-2.8,4.7-3.6c1.7-0.7,3.5-0.8,5.3-0.8c1.5,0.1,2.9,0.5,4.1,1.3c0.5,0.3,0.7,0.2,0.9-0.2
			c0.7-1.3,0.8-2.8,1.2-4.2C137.5,16.1,137.3,16,137.2,15.9z"/>
		<path class="st0" d="M210,50.1c1,0,1.9,0,2.9,0c0.9,0,1.8,0,2.8,0c0.6,0,0.8-0.2,0.9-0.8c0.2-1.6,0.4-3.2,0.7-4.8
			c0.4-3.1,0.9-6.2,1.3-9.3c0.3-2,0.6-4,0.8-6c0.3-2,0.6-4.1,0.9-6.1c0.3-2.1,0.6-4.1,0.9-6.2c0.1-0.5-0.1-0.7-0.6-0.7
			c-1.9,0-3.8,0-5.6,0c-0.6,0-0.8,0.2-0.9,0.7c-0.2,1.3-0.4,2.6-0.5,3.9c-0.3,2.7-0.8,5.4-1.1,8.1c-0.5,3.6-1,7.3-1.6,10.9
			c-0.5,3.2-0.9,6.5-1.4,9.7C209.4,50.1,209.6,50.1,210,50.1z"/>
		<path class="st0" d="M242,11c2.2-0.5,4.4-0.9,6.6-1.4c2.3-0.5,4.6-0.9,6.9-1.4c0.3-0.1,0.5-0.3,0.6-0.6c0.2-0.8,0.4-1.6,0.5-2.3
			c0.3-1.4,0.7-2.7,0.9-4.1c-0.2,0-0.3,0.1-0.4,0.1c-2.5,0.9-4.9,1.9-7.4,2.8c-2.7,1-5.3,2.1-8,3.1c-0.4,0.1-0.5,0.3-0.5,0.7
			c0,0.9,0.1,1.8,0.1,2.7C241.3,11,241.5,11.1,242,11z"/>
		<path class="st0" d="M215.8,10.7c0.9,0,1.9,0,2.8,0c0.9,0,1.7,0,2.6,0c0.6,0,0.7-0.2,0.8-0.7c0.1-0.6,0.2-1.1,0.3-1.7
			c0.2-1.1,0.4-2.3,0.6-3.4c0.1-0.4,0-0.7-0.6-0.6c-1.8,0-3.6,0-5.4,0c-0.4,0-0.5,0.1-0.6,0.5c-0.3,1.8-0.7,3.6-1,5.4
			C215.2,10.5,215.4,10.7,215.8,10.7z"/>
	</g>
</g>
</svg>
